{"hash":"4e373d94e50f9bdb980bf2135cb217fd8ba53ae1","data":{"tag":{"title":"Software Design","belongsTo":{"totalCount":8,"pageInfo":{"totalPages":3,"currentPage":2},"edges":[{"node":{"title":"The Origins of OOP","timeToRead":3,"date":"November 20, 2020","path":"/history-of-oop","summary":"A short blog post about the origins of object-oriented Programming","tags":[{"title":"Software Design"}]}},{"node":{"title":"Interface Segregation Principle in JavaScript and TypeScript","timeToRead":2,"date":"January 8, 2020","path":"/interface-segregation","summary":"Interface Segregation Principle in the context of JavaScript and TypeScript.","tags":[{"title":"JavaScript"},{"title":"Software Design"}]}},{"node":{"title":"Liskov Substitution Principle in JavaScript and TypeScript","timeToRead":2,"date":"January 6, 2020","path":"/liskov-substitution-principle","summary":"The Liskov Substitution Principle in the context of JavaScript and TypeScript.","tags":[{"title":"JavaScript"},{"title":"Software Design"}]}}]}}},"context":{}}