{"hash":"5f436540b380eb5bf5ec7251b7b442898069516b","data":{"tag":{"title":"Backend","belongsTo":{"totalCount":4,"pageInfo":{"totalPages":2,"currentPage":2},"edges":[{"node":{"title":"REST - Representational State Transfer","timeToRead":3,"date":"July 8, 2020","path":"/rest-tldr","summary":"Usually, when people speak about REST APIs they mean a web API that uses the HTTP request methods (POST, GET, PUT, DELETE, etc.) to modify or access the state of a resource.","tags":[{"title":"JavaScript"},{"title":"REST"},{"title":"Backend"}]}}]}}},"context":{}}