{"hash":"f801fdc23c6224c8f49746c17aad8d9c7afc32f2","data":{"tag":{"title":"Linux","belongsTo":{"totalCount":5,"pageInfo":{"totalPages":2,"currentPage":2},"edges":[{"node":{"title":"How to fix \"Unknown command nvm\" on Linux","timeToRead":2,"date":"January 17, 2021","path":"/fix-nvm-command-not-found","summary":"Here is how you can fix 'nvm command not found' on Linux.","tags":[{"title":"Linux"},{"title":"nvm"}]}},{"node":{"title":"How to kill a process running on a port","timeToRead":1,"date":"August 30, 2020","path":"/kill-process-on-port","summary":"TLDR How to kill a process running on a port.","tags":[{"title":"Linux"}]}}]}}},"context":{}}