{"hash":"3d3c9a9b43e58f27347bb2560c2db1e7b2af0959","data":{"tag":{"title":"JavaScript","belongsTo":{"totalCount":25,"pageInfo":{"totalPages":9,"currentPage":9},"edges":[{"node":{"title":"Pure Functions for Dummies","timeToRead":1,"date":"August 26, 2019","path":"/pure-functions","summary":"Functions that produce no side effects and have the same output given the same input are called \"pure\".","tags":[{"title":"JavaScript"}]}}]}}},"context":{}}