{"hash":"0dfee1b03dc11b4d891d6f7b7670fec2092f89f7","data":{"tag":{"title":"Frontend","belongsTo":{"totalCount":15,"pageInfo":{"totalPages":5,"currentPage":1},"edges":[{"node":{"title":"Why and when you should use Vuex","timeToRead":5,"date":"October 13, 2021","path":"/why-and-when-you-should-use-vuex","summary":"Why and when you should use Vuex in your Vue application. What problems does it solve?","tags":[{"title":"Vue"},{"title":"JavaScript"},{"title":"Frontend"}]}},{"node":{"title":"Async forEach","timeToRead":1,"date":"September 9, 2021","path":"/how-to-async-for-each","summary":"Why forEach and async functions don't mix","tags":[{"title":"JavaScript"},{"title":"Frontend"},{"title":"Backend"}]}},{"node":{"title":"What is Business Logic anyway?","timeToRead":3,"date":"April 28, 2021","path":"/what-is-business-logic","summary":"The term business logic is often used by developers when talking about software design and clean code. But understanding what it means can be confusing.","tags":[{"title":"JavaScript"},{"title":"Software Design"},{"title":"Frontend"}]}}]}}},"context":{}}