{"hash":"e3a87a84fda544a79e13658cad65201d9c784ad6","data":{"tag":{"title":"JavaScript","belongsTo":{"totalCount":25,"pageInfo":{"totalPages":9,"currentPage":3},"edges":[{"node":{"title":"How to test a class method with Jest","timeToRead":1,"date":"September 1, 2020","path":"/how-to-test-class-method-jest","summary":"Shot explanation of how to test a class method with Jest.","tags":[{"title":"JavaScript"},{"title":"Frontend"},{"title":"Backend"}]}},{"node":{"title":"How to drop all collections in a MongoDB database using Mongoose","timeToRead":1,"date":"August 19, 2020","path":"/how-to-drop-all-collections","summary":"Drop all collections with Mongoose.","tags":[{"title":"JavaScript"},{"title":"MongoDB"},{"title":"Backend"}]}},{"node":{"title":"TLDR JavaScript module formats","timeToRead":1,"date":"August 19, 2020","path":"/tldr-javascript-module-formats","summary":"Since JavaScript didn't use to have a core feature in the language that supports modules, a few different module formats have emerged.","tags":[{"title":"JavaScript"},{"title":"Frontend"}]}}]}}},"context":{}}