{"hash":"3096fae13e0f47fba95d08c8398e6c20c7020350","data":{"tag":{"title":"JavaScript","belongsTo":{"totalCount":24,"pageInfo":{"totalPages":8,"currentPage":4},"edges":[{"node":{"title":"Never use window.onload","timeToRead":1,"date":"June 17, 2020","path":"/never-use-window-onload","summary":"What to do when window.onload is not working.","tags":[{"title":"JavaScript"},{"title":"Frontend"}]}},{"node":{"title":"How to block domains in Lighthouse","timeToRead":1,"date":"June 6, 2020","path":"/block-domains-in-lighthouse","summary":"Learn to measure your Lighthouse Performance without 3rd Party JavaScript and Ads","tags":[{"title":"Frontend"},{"title":"JavaScript"}]}},{"node":{"title":"What is a Closure in JavaScript","timeToRead":1,"date":"March 17, 2020","path":"/closure-in-javascript","summary":"Short explanation of Closure in JavaScript","tags":[{"title":"JavaScript"}]}}]}}},"context":{}}