{"hash":"89052a63f47190f5c3fef48afac4280b45fc0b09","data":{"tag":{"title":"Backend","belongsTo":{"totalCount":7,"pageInfo":{"totalPages":3,"currentPage":3},"edges":[{"node":{"title":"REST - Representational State Transfer","timeToRead":3,"date":"July 8, 2020","path":"/rest-tldr","summary":"Usually, when people speak about REST APIs they mean a web API that uses the HTTP request methods (POST, GET, PUT, DELETE, etc.) to modify or access the state of a resource.","tags":[{"title":"JavaScript"},{"title":"REST"},{"title":"Backend"}]}}]}}},"context":{}}