{"hash":"96d2a1bb6796fa7ca20b79a034439f3c0a9fb1e2","data":{"tag":{"title":"JavaScript","belongsTo":{"totalCount":24,"pageInfo":{"totalPages":8,"currentPage":6},"edges":[{"node":{"title":"Interface Segregation Principle in JavaScript and TypeScript","timeToRead":2,"date":"January 8, 2020","path":"/interface-segregation","summary":"Interface Segregation Principle in the context of JavaScript and TypeScript.","tags":[{"title":"JavaScript"},{"title":"Software Design"}]}},{"node":{"title":"Liskov Substitution Principle in JavaScript and TypeScript","timeToRead":2,"date":"January 6, 2020","path":"/liskov-substitution-principle","summary":"The Liskov Substitution Principle in the context of JavaScript and TypeScript.","tags":[{"title":"JavaScript"},{"title":"Software Design"}]}},{"node":{"title":"Open-Closed Principle in JavaScript and TypeScript","timeToRead":2,"date":"January 5, 2020","path":"/open-closed-principle","summary":"Open-Closed Principle in the context of JavaScript and TypeScript.","tags":[{"title":"JavaScript"},{"title":"Software Design"}]}}]}}},"context":{}}