{"hash":"774936dac23a4a84d88c0c07ec6f143d52267404","data":{"tag":{"title":"Frontend","belongsTo":{"totalCount":13,"pageInfo":{"totalPages":5,"currentPage":5},"edges":[{"node":{"title":"TLDR - Recursion in JavaScript","timeToRead":1,"date":"September 8, 2019","path":"/recursion-javascript","summary":"Recursion is a method of solving a problem where the solution depends on solutions to smaller instances of the same problem.","tags":[{"title":"JavaScript"},{"title":"Frontend"}]}}]}}},"context":{}}