{"hash":"f801fdc23c6224c8f49746c17aad8d9c7afc32f2","data":{"tag":{"title":"Frontend","belongsTo":{"totalCount":15,"pageInfo":{"totalPages":5,"currentPage":2},"edges":[{"node":{"title":"How I became a professional self-taught developer in Germany while working a full time job","timeToRead":6,"date":"March 15, 2021","path":"/how-i-became-a-self-though-programmer","summary":"Hopefully, this blog post will help someone to avoid the mistakes that I made and also learn from the good decisions that I made.","tags":[{"title":"Frontend"},{"title":"Backend"}]}},{"node":{"title":"How to Fix Webpack Dynamic Import with Wrong Path","timeToRead":1,"date":"November 20, 2020","path":"/fix-webpack-dynamic-import-path","summary":"When using the dynamic import for code splitting you'll need to specify the publicPath option to let Webpack know where your assets are.","tags":[{"title":"JavaScript"},{"title":"Webpack"},{"title":"Frontend"}]}},{"node":{"title":"TLDR How to prevent layout shifts from image loading in 2021","timeToRead":1,"date":"November 2, 2020","path":"/tldr-responsive-images-in-2021","summary":"Preventing layout shifts when loading images has never been easier.","tags":[{"title":"JavaScript"},{"title":"Service Worker"},{"title":"Frontend"}]}}]}}},"context":{}}