{"hash":"774936dac23a4a84d88c0c07ec6f143d52267404","data":{"posts":{"totalCount":31,"pageInfo":{"totalPages":6,"currentPage":6},"edges":[{"node":{"id":"645adb30c0e5b6055716522ace7a691f","title":"Pure Functions for Dummies","date":"August 26, 2019","summary":"Functions that produce no side effects and have the same output given the same input are called \"pure\".","timeToRead":1,"path":"/pure-functions"}}]}},"context":{}}