{"hash":"276df72514c2e5c8eb16909c3800a0b981be4fb0","data":{"posts":{"totalCount":34,"pageInfo":{"totalPages":6,"currentPage":2},"edges":[{"node":{"id":"ddb10399ff730e4b26fe5561e17d46d3","title":"How I became a professional self-taught developer in Germany while working a full time job","date":"March 15, 2021","summary":"Hopefully, this blog post will help someone to avoid the mistakes that I made and also learn from the good decisions that I made.","timeToRead":6,"path":"/how-i-became-a-self-though-programmer"}},{"node":{"id":"00894794ab874acf718f536fd959bdf3","title":"How to fix \"Unknown command nvm\" on Linux","date":"January 17, 2021","summary":"Here is how you can fix 'nvm command not found' on Linux.","timeToRead":2,"path":"/fix-nvm-command-not-found"}},{"node":{"id":"e972b8212cfe6d6ad2aef3cb966c823c","title":"The Origins of OOP","date":"November 20, 2020","summary":"A short blog post about the origins of object-oriented Programming","timeToRead":3,"path":"/history-of-oop"}},{"node":{"id":"53affff7786c3c223853efe2b0fcb330","title":"How to Fix Webpack Dynamic Import with Wrong Path","date":"November 20, 2020","summary":"When using the dynamic import for code splitting you'll need to specify the publicPath option to let Webpack know where your assets are.","timeToRead":1,"path":"/fix-webpack-dynamic-import-path"}},{"node":{"id":"8f42e1ff07ea1af58f7bc31a810051e8","title":"TLDR How to prevent layout shifts from image loading in 2021","date":"November 2, 2020","summary":"Preventing layout shifts when loading images has never been easier.","timeToRead":1,"path":"/tldr-responsive-images-in-2021"}},{"node":{"id":"47eb733501b96bfd0f72f0d071275364","title":"How to test a class method with Jest","date":"September 1, 2020","summary":"Shot explanation of how to test a class method with Jest.","timeToRead":1,"path":"/how-to-test-class-method-jest"}}]}},"context":{}}