{"hash":"0114f84967cb0b95868f9577864552a4a8872f0e","data":{"tag":{"title":"JavaScript","belongsTo":{"totalCount":26,"pageInfo":{"totalPages":9,"currentPage":7},"edges":[{"node":{"title":"Liskov Substitution Principle in JavaScript and TypeScript","timeToRead":2,"date":"January 6, 2020","path":"/liskov-substitution-principle","summary":"The Liskov Substitution Principle in the context of JavaScript and TypeScript.","tags":[{"title":"JavaScript"},{"title":"Software Design"}]}},{"node":{"title":"Open-Closed Principle in JavaScript and TypeScript","timeToRead":2,"date":"January 5, 2020","path":"/open-closed-principle","summary":"Open-Closed Principle in the context of JavaScript and TypeScript.","tags":[{"title":"JavaScript"},{"title":"Software Design"}]}},{"node":{"title":"Npm link for local development","timeToRead":1,"date":"January 5, 2020","path":"/npm-link","summary":"How to use npm link for local development.","tags":[{"title":"JavaScript"},{"title":"npm"}]}}]}}},"context":{}}