{"hash":"526ae00f57ea77b5e965f2124d3d77b83e12d6c6","data":{"tag":{"title":"JavaScript","belongsTo":{"totalCount":24,"pageInfo":{"totalPages":8,"currentPage":2},"edges":[{"node":{"title":"TLDR How to prevent layout shifts from image loading in 2021","timeToRead":1,"date":"November 2, 2020","path":"/tldr-responsive-images-in-2021","summary":"Preventing layout shifts when loading images has never been easier.","tags":[{"title":"JavaScript"},{"title":"Service Worker"},{"title":"Frontend"}]}},{"node":{"title":"How to test a class method with Jest","timeToRead":1,"date":"September 1, 2020","path":"/how-to-test-class-method-jest","summary":"Shot explanation of how to test a class method with Jest.","tags":[{"title":"JavaScript"},{"title":"Frontend"},{"title":"Backend"}]}},{"node":{"title":"How to drop all collections in a MongoDB database using Mongoose","timeToRead":1,"date":"August 19, 2020","path":"/how-to-drop-all-collections","summary":"Drop all collections with Mongoose.","tags":[{"title":"JavaScript"},{"title":"MongoDB"},{"title":"Backend"}]}}]}}},"context":{}}