{"hash":"f289786b350d97d67b9fdbf1ace9ec5664316808","data":{"posts":{"totalCount":35,"pageInfo":{"totalPages":6,"currentPage":4},"edges":[{"node":{"id":"e2f587467e82f2a9dbadf2871a94b36f","title":"REST - Representational State Transfer","date":"July 8, 2020","summary":"Usually, when people speak about REST APIs they mean a web API that uses the HTTP request methods (POST, GET, PUT, DELETE, etc.) to modify or access the state of a resource.","timeToRead":3,"path":"/rest-tldr"}},{"node":{"id":"b2c0a70ba29d48903e6d51368ef0fb92","title":"Never use window.onload","date":"June 17, 2020","summary":"What to do when window.onload is not working.","timeToRead":1,"path":"/never-use-window-onload"}},{"node":{"id":"9d2da367ec9baf1cd8def06b388a0159","title":"How DOM size can impact performance","date":"June 9, 2020","summary":"Testing how excessive DOM size can impact perfromance","timeToRead":2,"path":"/dom-nodes-and-performance"}},{"node":{"id":"9c5de605c357955a5dc401b39e2e7fe8","title":"How to block domains in Lighthouse","date":"June 6, 2020","summary":"Learn to measure your Lighthouse Performance without 3rd Party JavaScript and Ads","timeToRead":1,"path":"/block-domains-in-lighthouse"}},{"node":{"id":"432c07a858ef3d4fb68c44eab9fe2806","title":"What is a Closure in JavaScript","date":"March 17, 2020","summary":"Short explanation of Closure in JavaScript","timeToRead":1,"path":"/closure-in-javascript"}},{"node":{"id":"d4c5f70fa64b4d15e1865103017b9df7","title":"What is a Lambda Function in JavaScript","date":"February 27, 2020","summary":"Short explanation of Lambda expressions in JavaScript.","timeToRead":1,"path":"/lambda-in-javascript"}}]}},"context":{}}