{"hash":"89052a63f47190f5c3fef48afac4280b45fc0b09","data":{"tag":{"title":"Frontend","belongsTo":{"totalCount":17,"pageInfo":{"totalPages":6,"currentPage":3},"edges":[{"node":{"title":"How to Fix Webpack Dynamic Import with Wrong Path","timeToRead":1,"date":"November 20, 2020","path":"/fix-webpack-dynamic-import-path","summary":"When using the dynamic import for code splitting you'll need to specify the publicPath option to let Webpack know where your assets are.","tags":[{"title":"JavaScript"},{"title":"Webpack"},{"title":"Frontend"}]}},{"node":{"title":"TLDR How to prevent layout shifts from image loading in 2021","timeToRead":1,"date":"November 2, 2020","path":"/tldr-responsive-images-in-2021","summary":"Preventing layout shifts when loading images has never been easier.","tags":[{"title":"JavaScript"},{"title":"Service Worker"},{"title":"Frontend"}]}},{"node":{"title":"How to test a class method with Jest","timeToRead":1,"date":"September 1, 2020","path":"/how-to-test-class-method-jest","summary":"Shot explanation of how to test a class method with Jest.","tags":[{"title":"JavaScript"},{"title":"Frontend"},{"title":"Backend"}]}}]}}},"context":{}}