{"hash":"e3a87a84fda544a79e13658cad65201d9c784ad6","data":{"tag":{"title":"JavaScript","belongsTo":{"totalCount":25,"pageInfo":{"totalPages":9,"currentPage":8},"edges":[{"node":{"title":"Web Push Notifications Part 2","timeToRead":2,"date":"November 10, 2019","path":"/web-push-notifications-p2","summary":"Handling Push Events and getting the Push Subscription.","tags":[{"title":"JavaScript"},{"title":"Service Worker"},{"title":"Frontend"}]}},{"node":{"title":"Web Push Notification Part 1","timeToRead":2,"date":"November 2, 2019","path":"/web-push-notifications-p1","summary":"Get a better understanding of how Web Push Notifications work.","tags":[{"title":"JavaScript"},{"title":"Service Worker"},{"title":"Frontend"}]}},{"node":{"title":"TLDR - Recursion in JavaScript","timeToRead":1,"date":"September 8, 2019","path":"/recursion-javascript","summary":"Recursion is a method of solving a problem where the solution depends on solutions to smaller instances of the same problem.","tags":[{"title":"JavaScript"},{"title":"Frontend"}]}}]}}},"context":{}}