{"hash":"e3a87a84fda544a79e13658cad65201d9c784ad6","data":{"posts":{"totalCount":37,"pageInfo":{"totalPages":7,"currentPage":7},"edges":[{"node":{"id":"645adb30c0e5b6055716522ace7a691f","title":"Pure Functions for Dummies","date":"August 26, 2019","summary":"Functions that produce no side effects and have the same output given the same input are called \"pure\".","timeToRead":1,"path":"/pure-functions"}}]}},"context":{}}