{"hash":"e16787398f177d756f6fa141894c924c15350319","data":{"tag":{"title":"Linux","belongsTo":{"totalCount":6,"pageInfo":{"totalPages":2,"currentPage":1},"edges":[{"node":{"title":"How to show what Ports are being used on Linux","timeToRead":1,"date":"July 31, 2021","path":"/show-what-ports-are-used-on-linux","summary":"","tags":[{"title":"Linux"},{"title":"Ports"}]}},{"node":{"title":"How to create an alias on linux","timeToRead":1,"date":"July 20, 2021","path":"/how-to-create-an-alias-on-linux","summary":"","tags":[{"title":"Linux"}]}},{"node":{"title":"Docker Cheat Sheet","timeToRead":1,"date":"July 20, 2021","path":"/docker-chear-sheet","summary":"A simple Docker cheat sheet","tags":[{"title":"Linux"},{"title":"Docker"}]}}]}}},"context":{}}