{"hash":"74969d1f81d94d0993d1f7faabb83632b2d499bd","data":{"tag":{"title":"JavaScript","belongsTo":{"totalCount":24,"pageInfo":{"totalPages":8,"currentPage":5},"edges":[{"node":{"title":"What is a Lambda Function in JavaScript","timeToRead":1,"date":"February 27, 2020","path":"/lambda-in-javascript","summary":"Short explanation of Lambda expressions in JavaScript.","tags":[{"title":"JavaScript"}]}},{"node":{"title":"How to render an Array in React","timeToRead":1,"date":"January 28, 2020","path":"/render-an-array-in-react","summary":"Let's say you have an array like this...","tags":[{"title":"JavaScript"},{"title":"React"},{"title":"Frontend"}]}},{"node":{"title":"Dependency Inversion Principle in JavaScript and TypeScript","timeToRead":2,"date":"January 15, 2020","path":"/dependency-inversion-principle","summary":"Interface Segregation Principle in the context of JavaScript and TypeScript.","tags":[{"title":"JavaScript"},{"title":"Software Design"}]}}]}}},"context":{}}