{"hash":"0dfee1b03dc11b4d891d6f7b7670fec2092f89f7","data":{"tag":{"title":"JavaScript","belongsTo":{"totalCount":26,"pageInfo":{"totalPages":9,"currentPage":1},"edges":[{"node":{"title":"Dependency Inversion Principle in JavaScript and TypeScript","timeToRead":2,"date":"January 18, 2022","path":"/dependency-inversion-principle","summary":"Interface Segregation Principle in the context of JavaScript and TypeScript.","tags":[{"title":"JavaScript"},{"title":"TypeScript"},{"title":"Software Design"}]}},{"node":{"title":"Why and when you should use Vuex","timeToRead":5,"date":"October 13, 2021","path":"/why-and-when-you-should-use-vuex","summary":"Why and when you should use Vuex in your Vue application. What problems does it solve?","tags":[{"title":"Vue"},{"title":"JavaScript"},{"title":"Frontend"}]}},{"node":{"title":"Async forEach","timeToRead":1,"date":"September 9, 2021","path":"/how-to-async-for-each","summary":"Why forEach and async functions don't mix","tags":[{"title":"JavaScript"},{"title":"Frontend"},{"title":"Backend"}]}}]}}},"context":{}}