{"hash":"0114f84967cb0b95868f9577864552a4a8872f0e","data":{"tag":{"title":"Frontend","belongsTo":{"totalCount":16,"pageInfo":{"totalPages":6,"currentPage":6},"edges":[{"node":{"title":"TLDR - Recursion in JavaScript","timeToRead":1,"date":"September 8, 2019","path":"/recursion-javascript","summary":"Recursion is a method of solving a problem where the solution depends on solutions to smaller instances of the same problem.","tags":[{"title":"JavaScript"},{"title":"Frontend"}]}}]}}},"context":{}}