{"hash":"89052a63f47190f5c3fef48afac4280b45fc0b09","data":{"tag":{"title":"Backend","belongsTo":{"totalCount":7,"pageInfo":{"totalPages":3,"currentPage":1},"edges":[{"node":{"title":"RegEx Basics Cheat Sheet","timeToRead":6,"date":"March 10, 2025","path":"/regex-basics-cheat-sheet","summary":"RegEx Basics Cheat Sheet","tags":[{"title":"RegEx"},{"title":"Frontend"},{"title":"Backend"}]}},{"node":{"title":"Summary of \"A Philosophy of Software Design\" by John Ousterhout","timeToRead":38,"date":"December 29, 2023","path":"/a-philosophy-of-software-design-summary","summary":"A summary of \"A Philosophy of Software Design\" a book written by John Ousterhout.","tags":[{"title":"Software Design"},{"title":"Frontend"},{"title":"Backend"}]}},{"node":{"title":"Async forEach","timeToRead":1,"date":"September 9, 2021","path":"/how-to-async-for-each","summary":"Why forEach and async functions don't mix","tags":[{"title":"JavaScript"},{"title":"Frontend"},{"title":"Backend"}]}}]}}},"context":{}}