{"hash":"e16787398f177d756f6fa141894c924c15350319","data":{"posts":{"totalCount":36,"pageInfo":{"totalPages":6,"currentPage":1},"edges":[{"node":{"id":"3cdf33cef82ccfde429e30361a508f9e","title":"How to show what Ports are being used on Linux","date":"July 31, 2021","summary":"","timeToRead":1,"path":"/show-what-ports-are-used-on-linux"}},{"node":{"id":"f3941fdbc8714bd92ab19cde4e4b94bd","title":"How does JWT work","date":"July 30, 2021","summary":"In this blog I will go into depth on what JWT is and how it works","timeToRead":1,"path":"/how-does-jwt-work"}},{"node":{"id":"3c3c32fd6b004719579b6243d253fd64","title":"How to add Request Headers to an IFrame src request","date":"July 28, 2021","summary":"In this blog post, you'll learn how to send a request header while fetching an iframe.","timeToRead":1,"path":"/how-to-send-request-headers-iframe"}},{"node":{"id":"d15c4ff93e62df20086e857904bcdfb7","title":"Docker Cheat Sheet","date":"July 20, 2021","summary":"A simple Docker cheat sheet","timeToRead":1,"path":"/docker-chear-sheet"}},{"node":{"id":"5b7342ac6a69ef0c31b70c57a7e4012a","title":"How to create an alias on linux","date":"July 20, 2021","summary":"","timeToRead":1,"path":"/how-to-create-an-alias-on-linux"}},{"node":{"id":"2a887c840a4c0c38b248a528ea4c40c0","title":"How to add a path to zsh or bash on Linux","date":"July 11, 2021","summary":"How to fix the command not found on Linux.","timeToRead":2,"path":"/how-to-add-path-to-zsh-or-bash-on-linux"}}]}},"context":{}}