{"hash":"0dfee1b03dc11b4d891d6f7b7670fec2092f89f7","data":{"tag":{"title":"Frontend","belongsTo":{"totalCount":15,"pageInfo":{"totalPages":5,"currentPage":4},"edges":[{"node":{"title":"How DOM size can impact performance","timeToRead":2,"date":"June 9, 2020","path":"/dom-nodes-and-performance","summary":"Testing how excessive DOM size can impact perfromance","tags":[{"title":"Frontend"}]}},{"node":{"title":"How to block domains in Lighthouse","timeToRead":1,"date":"June 6, 2020","path":"/block-domains-in-lighthouse","summary":"Learn to measure your Lighthouse Performance without 3rd Party JavaScript and Ads","tags":[{"title":"Frontend"},{"title":"JavaScript"}]}},{"node":{"title":"How to render an Array in React","timeToRead":1,"date":"January 28, 2020","path":"/render-an-array-in-react","summary":"Let's say you have an array like this...","tags":[{"title":"JavaScript"},{"title":"React"},{"title":"Frontend"}]}}]}}},"context":{}}