{"hash":"8e7fdf0679dbc26678fb738edc153f42ec135f58","data":{"tag":{"title":"Software Design","belongsTo":{"totalCount":8,"pageInfo":{"totalPages":3,"currentPage":1},"edges":[{"node":{"title":"Dependency Inversion Principle in JavaScript and TypeScript","timeToRead":2,"date":"January 18, 2022","path":"/dependency-inversion-principle","summary":"Interface Segregation Principle in the context of JavaScript and TypeScript.","tags":[{"title":"JavaScript"},{"title":"TypeScript"},{"title":"Software Design"}]}},{"node":{"title":"What is Business Logic anyway?","timeToRead":3,"date":"April 28, 2021","path":"/what-is-business-logic","summary":"The term business logic is often used by developers when talking about software design and clean code. But understanding what it means can be confusing.","tags":[{"title":"JavaScript"},{"title":"Software Design"},{"title":"Frontend"}]}},{"node":{"title":"How to Make your If Statements more readable by using this ES2020 Feature","timeToRead":1,"date":"April 26, 2021","path":"/make-your-if-statements-more-readable","summary":"Use Optional Chaining to reduce Noise-to-Signal Ratio.","tags":[{"title":"JavaScript"},{"title":"Software Design"}]}}]}}},"context":{}}