{"hash":"0dfee1b03dc11b4d891d6f7b7670fec2092f89f7","data":{"tag":{"title":"Software Design","belongsTo":{"totalCount":8,"pageInfo":{"totalPages":3,"currentPage":3},"edges":[{"node":{"title":"Open-Closed Principle in JavaScript and TypeScript","timeToRead":2,"date":"January 5, 2020","path":"/open-closed-principle","summary":"Open-Closed Principle in the context of JavaScript and TypeScript.","tags":[{"title":"JavaScript"},{"title":"Software Design"}]}},{"node":{"title":"Single Responsibility Principle in JavaScript","timeToRead":1,"date":"January 4, 2020","path":"/single-responsibility-principle","summary":"Single Responsibility Principle in the context of JavaScript.","tags":[{"title":"JavaScript"},{"title":"Software Design"}]}}]}}},"context":{}}